<svg xmlns="http://www.w3.org/2000/svg" width="44" height="50" viewBox="0 0 44 50">
    <g fill="none" fill-rule="evenodd" opacity=".905">
        <path d="M0 0H48V48H0z" transform="translate(-2 1)"/>
        <path fill="#131812" fill-rule="nonzero" stroke="#FFF" stroke-width=".25" d="M25.502 0c8.305 0 17.75 4.187 18.902 11.947 1.202 8.122.663 9.027-2.328 14.05l-.316.526c-1.592 2.628-4.906 8.093-3.946 15.426.065.496-.25.965-.741 1.107l-16.985 4.902c-.1.028-.2.042-.297.042-.423 0-.818-.25-.976-.655l-.111-.283c-.397-.983-.388-1.938-.38-2.862.012-1.383.023-2.577-1.286-3.975-.24-.254-.435-.481-.606-.68-.549-.645-.559-.657-1.135-.657-.415 0-1.02.061-1.96.2-2.579.407-5.853-1.146-5.853-4.41 0-1.15-.062-1.433-.088-1.5-.891-.86-.886-1.685-.641-2.362-.535-.415-.826-1.007-.826-1.715 0-.092.08-.57.195-1.143l.118-.595c-.973 0-2.455-.01-3.068-1.475-.636-1.518.635-2.762 1.178-3.293 1.655-1.613 2.683-5.905 2.942-8.233C8.172 3.769 17.65 0 25.502 0zm0 2.038c-7.295 0-15.362 3.289-16.127 12.517-.01.095-.786 6.791-3.544 9.48-.553.542-.796.906-.722 1.085.062.148.186.263 1.093.205.48 0 .982.002 1.482.108.522.11.876.585.818 1.104-.037.34-.164.997-.283 1.594l-.044.22c-.067.334-.127.626-.151.775l-.008.054c.004 0 .006.098.412.2.323.081.586.306.71.609.124.3.093.64-.083.917-.128.2-.338.53-.36.653.008.002.043.062.148.165.609.595.731 1.091.731 2.954 0 1.899 1.907 2.635 3.442 2.397 1.07-.158 1.75-.225 2.281-.225 1.556 0 2.106.645 2.743 1.391.151.177.324.38.539.609 1.866 1.988 1.849 3.863 1.835 5.368-.004.548-.009 1.041.07 1.499l15.16-4.375c-.699-7.583 2.668-13.137 4.315-15.856l.309-.511c2.866-4.813 3.166-5.317 2.066-12.737-.982-6.625-9.405-10.2-16.832-10.2zm-.71 2.348c.626 0 1.167.188 1.524.529.09.086.227.162.329.204.765-.636 2.174-.6 2.837.034.207.196.32.437.405.658.64-.208 1.467 0 1.955.191l.27.1c.545.178.865.593 1.078.888.982-.175 1.668.61 1.982 1.017.05.066.096.13.143.176.247.238.373.518.465.723.013.027.027.061.043.093 1.317.063 1.99 1.037 2.026 2-.01-.023.347.27.504.42.5.478 1.214 1.673 1.245 2.538.01.318-.061.59-.118.81-.01.039-.023.078-.03.115.734.8.993 2.149.213 3.009-.075.083-.132.148-.175.2.761 1.037-.223 2.118-.61 2.545-.15.164-.158.425-.137.937.002.082.018.16.032.237.064.361.172.967-.265 1.493-.302.36-.768.555-1.382.577-.86.03-1.476.263-1.886.717-.162.177-.315.396-.464.607-.434.613-.924 1.302-1.7 1.392l-.17.01c-.263 0-.655-.074-1.02-.425-.137-.131-.315-.229-.54-.354-.44-.245-1.043-.577-1.52-1.32-.168-.259-.292-.48-.392-.663-.864.231-1.538-.173-1.723-.434-.182-.256-.35-.7-.1-1.36l.002-.002c-.756.006-1.033.065-1.13.115-.687.795-2.275.924-3.2.044l-.215-.212c-.05-.05-.11-.111-.164-.162-.23.127-.334.2-.427.265-.308.215-.69.484-1.232.484-.66 0-1.177-.41-1.594-.81-.755-.719-1.368-.877-1.54-.877-.07.005-.152.023-.243.04-.27.051-.573.102-.844.102-.959 0-1.624-.603-1.657-1.5-.05-.074-.41-.286-.636-.36-.24-.077-.442-.237-.57-.449-.188-.309-1.104-1.917-.74-3.186.117-.409.12-.551.126-.766.005-.222.012-.453.085-.835.021-.11.013-.18-.005-.317-.066-.51-.072-1.07.611-1.824.946-1.039 1.006-1.414 1.008-1.43-.064-1.715.909-2.411 1.737-2.688.7-.237 1.745-.89 2.086-1.183.057-.146.145-.285.261-.407.588-.62 1.942-.801 2.37-.816.481-.018 1.228-.198 1.412-.315.47-.53 1.406-.575 1.68-.575zm.063 1.985c-.213.053-.333.086-.364.101-.649.744-2.696.84-2.716.84-.267.01-.67.107-.883.186-.713 1.156-3.198 2.1-3.227 2.11-.214.072-.352.118-.33.718.025.763-.447 1.634-1.532 2.826-.105.115-.129.167-.13.17.055.258.095.573.013.994-.044.231-.046.374-.05.509-.008.346-.028.66-.202 1.266-.065.229.132.834.373 1.32.503.235 1.294.722 1.56 1.544l.104-.02c.218-.042.417-.073.564-.078h.004c.997 0 2.117.547 3.075 1.46.055.052.1.094.14.128l.004-.002c.148-.104.316-.221.521-.34.416-.243.802-.36 1.181-.36.78 0 1.258.48 1.609.832l.177.177 1.035.667-.783-.674c.612-.68 1.698-.736 2.757-.736h.384l.284-.002h.006c.782 0 1.145.306 1.327.563.26.367.268.757.178 1.149.76.091 1.076.673 1.292 1.07.09.167.204.378.372.634.196.308.428.436.781.632.15.082.309.172.47.277.074-.098.147-.2.208-.287.198-.28.404-.566.617-.799.726-.802 1.733-1.266 2.994-1.38-.01-.083-.016-.152-.018-.221-.022-.623-.057-1.567.661-2.36.07-.076.166-.18.243-.273-.38-.537-.485-1.349.547-2.476-.044.015-.098-.189-.224-.308-.75-.714-.529-1.559-.423-1.965.02-.08.054-.2.054-.24-.023-.236-.398-.94-.615-1.147-.49-.466-1.102-1.048-1.135-1.8-1.302-.042-1.731-.993-1.892-1.351-.123-.19-.241-.333-.364-.494-.034-.045-.082-.104-.126-.159-.1.035-.25.058-.4.058-.797 0-1.231-.601-1.464-.925-.057-.078-.141-.197-.18-.23-.012.011-.14-.031-.267-.082-.2-.078-.372-.145-.49-.145-.027 0-.104 0-.253.075-.268.134-.535.202-.794.202-1.08 0-1.43-1.006-1.56-1.385-.264.357-.715.55-1.215.55-.77 0-1.504-.442-1.898-.82z" transform="translate(-2 1)"/>
    </g>
</svg>
