<svg xmlns="http://www.w3.org/2000/svg" width="40" height="30" viewBox="0 0 40 30">
  <path id="_" data-name="“" d="M22.765,20.164C22.765,9.345,30.5,2.459,39.02,0L40,3.049c-5.973,1.77-11.75,7.377-11.75,13.869a9.935,9.935,0,0,0,.293,2.459A5,5,0,0,1,32.264,17.7c2.84,0,5.484,1.869,5.484,6.1,0,3.246-2.155,6.2-6.953,6.2C24.821,30,22.765,25.18,22.765,20.164ZM0,20.164C0,9.345,7.736,2.459,16.256,0l.979,3.049C11.262,4.819,5.484,10.427,5.484,16.918a9.934,9.934,0,0,0,.294,2.459A5,5,0,0,1,9.5,17.7c2.84,0,5.484,1.869,5.484,6.1,0,3.246-2.154,6.2-6.953,6.2C2.056,30,0,25.18,0,20.164Z" fill="#f04c1c" opacity="0.299"/>
</svg>
