<svg xmlns="http://www.w3.org/2000/svg" width="44" height="46" viewBox="0 0 44 46">
    <g fill="none" fill-rule="evenodd" opacity=".905">
        <path d="M0 0H48V48H0z" transform="translate(-2 -1)"/>
        <path fill="#131812" fill-rule="nonzero" stroke="#FFF" stroke-width=".25" d="M44.001 26.171c.552 0 .999.444.999.992s-.447.991-.999.991h-9.989v4.957c0 .548-.447.992-.999.992h-6.992v4.957c0 .548-.447.991-.999.991H18.03v4.958c0 .548-.447.991-.999.991H6.043c-.552 0-.999-.443-.999-.991 0-.549.447-.992 1-.992h9.988V39.06c0-.548.447-.992 1-.992h6.991v-4.957c0-.548.447-.991 1-.991h6.991v-4.957c0-.548.447-.992 1-.992H44zm-30.916 1.212c.525.169.815.727.646 1.248L9.494 41.736c-.136.422-.53.69-.952.69-.1 0-.203-.016-.305-.047-.525-.168-.814-.726-.645-1.247l4.237-13.106c.169-.523.73-.803 1.256-.643zm1.793-15.942c1.068 0 2.06.417 2.801 1.177.738.758 1.134 1.796 1.088 2.848l.644 4.517 4.442-1.098c.545-.127 1.078.194 1.21.724.133.53-.193 1.069-.727 1.201l-5.519 1.363c-.274.065-.565.017-.8-.14-.235-.158-.39-.408-.43-.686l-.807-5.788c.013-.698-.174-1.19-.538-1.563-.364-.374-.91-.635-1.381-.572-.986.009-1.825.887-1.872 1.957l-.268 6.138c-.02.464.155.922.48 1.256l6.11 4.322c.583.575.824 1.202.797 1.841l-.3 5.928c-.027.528-.468.94-.997.94l-.05-.001c-.552-.027-.976-.492-.949-1.04l.3-5.92c.004-.089-.032-.184-.1-.253l-6.11-4.322c-.842-.842-1.22-1.832-1.176-2.836l.267-6.139c.093-2.142 1.784-3.835 3.85-3.854h.035zm-5.453 2.787c.259.484.075 1.085-.412 1.342l-2.434 1.287-1.615 6.102c-.117.446-.521.74-.964.74-.084 0-.17-.01-.255-.033-.533-.138-.852-.68-.712-1.21l1.725-6.522c.07-.267.25-.493.495-.623l2.82-1.491c.488-.257 1.09-.074 1.352.408zM15.294 2c2.143 0 3.887 1.73 3.887 3.857 0 2.127-1.744 3.859-3.887 3.859s-3.887-1.731-3.887-3.859C11.407 3.73 13.15 2 15.294 2zm0 1.983c-1.042 0-1.89.84-1.89 1.874 0 1.034.848 1.876 1.89 1.876 1.042 0 1.89-.842 1.89-1.876 0-1.034-.848-1.874-1.89-1.874z" transform="translate(-2 -1)"/>
    </g>
</svg>
